<svg width="34" height="34" viewBox="0 0 34 34" fill="none" xmlns="http://www.w3.org/2000/svg">
<circle cx="17" cy="17" r="17" fill="#EE3831"/>
<path d="M16.0667 10L23 17M23 17L16.0667 24M23 17H10" stroke="white" stroke-width="2"/>
</svg>
