<svg width="40" height="40" viewBox="0 0 40 40" fill="none" xmlns="http://www.w3.org/2000/svg">
<rect width="40" height="40" rx="20" fill="url(#paint0_linear)"/>
<path d="M8 32L9.69505 25.837C8.64908 24.033 8.09947 21.988 8.10048 19.891C8.10349 13.335 13.464 8 20.0502 8C23.2464 8.001 26.2467 9.24 28.5034 11.488C30.7591 13.736 32.001 16.724 32 19.902C31.997 26.459 26.6365 31.794 20.0502 31.794C18.0507 31.793 16.0804 31.294 14.3351 30.346L8 32ZM14.6285 28.193C16.3125 29.188 17.9201 29.784 20.0462 29.785C25.5202 29.785 29.9794 25.351 29.9824 19.9C29.9844 14.438 25.5463 10.01 20.0543 10.008C14.5762 10.008 10.1201 14.442 10.1181 19.892C10.1171 22.117 10.7722 23.783 11.8724 25.526L10.8686 29.174L14.6285 28.193ZM26.0698 22.729C25.9955 22.605 25.7965 22.531 25.4971 22.382C25.1987 22.233 23.7307 21.514 23.4564 21.415C23.1831 21.316 22.9842 21.266 22.7842 21.564C22.5853 21.861 22.0126 22.531 21.8387 22.729C21.6649 22.927 21.4901 22.952 21.1917 22.803C20.8932 22.654 19.9307 22.341 18.7903 21.328C17.903 20.54 17.3032 19.567 17.1294 19.269C16.9555 18.972 17.1113 18.811 17.26 18.663C17.3946 18.53 17.5584 18.316 17.7081 18.142C17.8598 17.97 17.9091 17.846 18.0095 17.647C18.109 17.449 18.0598 17.275 17.9844 17.126C17.9091 16.978 17.3122 15.515 17.0641 14.92C16.8209 14.341 16.5747 14.419 16.3919 14.41L15.8191 14.4C15.6202 14.4 15.2967 14.474 15.0234 14.772C14.7501 15.07 13.9784 15.788 13.9784 17.251C13.9784 18.714 15.0485 20.127 15.1972 20.325C15.3469 20.523 17.3022 23.525 20.2974 24.812C21.0098 25.118 21.5664 25.301 21.9995 25.438C22.7149 25.664 23.366 25.632 23.8804 25.556C24.4542 25.471 25.6468 24.837 25.896 24.143C26.1452 23.448 26.1452 22.853 26.0698 22.729Z" fill="white"/>
<defs>
<linearGradient id="paint0_linear" x1="20" y1="0" x2="20" y2="40" gradientUnits="userSpaceOnUse">
<stop stop-color="#61FD7D"/>
<stop offset="1" stop-color="#26CF43"/>
</linearGradient>
</defs>
</svg>
